<?xml version="1.0" encoding="UTF-8" standalone="no"?>
<!DOCTYPE svg PUBLIC "-//W3C//DTD SVG 1.1//EN"
 "http://www.w3.org/Graphics/SVG/1.1/DTD/svg11.dtd">
<!-- Generated by graphviz version 2.42.3 (20191010.1750)
 -->
<!-- Title: snakemake_dag Pages: 1 -->
<svg width="2785pt" height="548pt"
 viewBox="0.00 0.00 2785.07 548.00" xmlns="http://www.w3.org/2000/svg" xmlns:xlink="http://www.w3.org/1999/xlink">
<g id="graph0" class="graph" transform="scale(1 1) rotate(0) translate(4 544)">
<title>snakemake_dag</title>
<polygon fill="white" stroke="transparent" points="-4,4 -4,-544 2781.07,-544 2781.07,4 -4,4"/>
<!-- 0 -->
<g id="node1" class="node">
<title>0</title>
<path fill="none" stroke="#d8bc56" stroke-width="2" d="M1363,-36C1363,-36 1333,-36 1333,-36 1327,-36 1321,-30 1321,-24 1321,-24 1321,-12 1321,-12 1321,-6 1327,0 1333,0 1333,0 1363,0 1363,0 1369,0 1375,-6 1375,-12 1375,-12 1375,-24 1375,-24 1375,-30 1369,-36 1363,-36"/>
<text text-anchor="middle" x="1348" y="-15.5" font-family="sans" font-size="10.00">target</text>
</g>
<!-- 1 -->
<g id="node2" class="node">
<title>1</title>
<path fill="none" stroke="#56d892" stroke-width="2" d="M582.5,-540C582.5,-540 423.5,-540 423.5,-540 417.5,-540 411.5,-534 411.5,-528 411.5,-528 411.5,-516 411.5,-516 411.5,-510 417.5,-504 423.5,-504 423.5,-504 582.5,-504 582.5,-504 588.5,-504 594.5,-510 594.5,-516 594.5,-516 594.5,-528 594.5,-528 594.5,-534 588.5,-540 582.5,-540"/>
<text text-anchor="middle" x="503" y="-525" font-family="sans" font-size="10.00">star_align</text>
<text text-anchor="middle" x="503" y="-514" font-family="sans" font-size="10.00">sample: R19013702LR01&#45;150521T</text>
</g>
<!-- 1&#45;&gt;0 -->
<g id="edge1" class="edge">
<title>1&#45;&gt;0</title>
<path fill="none" stroke="grey" stroke-width="2" d="M506.84,-503.61C512.4,-476.94 522,-424.27 522,-379 522,-379 522,-379 522,-233 522,-192.55 515.86,-175.69 541,-144 587.71,-85.12 621.38,-91.35 694,-72 811.8,-40.62 1189.8,-24.66 1310.54,-20.28"/>
<polygon fill="grey" stroke="grey" stroke-width="2" points="1310.89,-23.77 1320.76,-19.91 1310.64,-16.77 1310.89,-23.77"/>
</g>
<!-- 2 -->
<g id="node3" class="node">
<title>2</title>
<path fill="none" stroke="#d86e56" stroke-width="2" d="M370,-396C370,-396 302,-396 302,-396 296,-396 290,-390 290,-384 290,-384 290,-372 290,-372 290,-366 296,-360 302,-360 302,-360 370,-360 370,-360 376,-360 382,-366 382,-372 382,-372 382,-384 382,-384 382,-390 376,-396 370,-396"/>
<text text-anchor="middle" x="336" y="-375.5" font-family="sans" font-size="10.00">align_bam_stat</text>
</g>
<!-- 1&#45;&gt;2 -->
<g id="edge42" class="edge">
<title>1&#45;&gt;2</title>
<path fill="none" stroke="grey" stroke-width="2" d="M435.49,-503.96C414.08,-495.89 391.66,-484.33 375,-468 357.84,-451.19 347.7,-425.54 342.09,-406.09"/>
<polygon fill="grey" stroke="grey" stroke-width="2" points="345.43,-405.05 339.48,-396.29 338.67,-406.85 345.43,-405.05"/>
</g>
<!-- 3 -->
<g id="node4" class="node">
<title>3</title>
<path fill="none" stroke="#56b9d8" stroke-width="2" d="M443.5,-468C443.5,-468 396.5,-468 396.5,-468 390.5,-468 384.5,-462 384.5,-456 384.5,-456 384.5,-444 384.5,-444 384.5,-438 390.5,-432 396.5,-432 396.5,-432 443.5,-432 443.5,-432 449.5,-432 455.5,-438 455.5,-444 455.5,-444 455.5,-456 455.5,-456 455.5,-462 449.5,-468 443.5,-468"/>
<text text-anchor="middle" x="420" y="-447.5" font-family="sans" font-size="10.00">index_bam</text>
</g>
<!-- 1&#45;&gt;3 -->
<g id="edge44" class="edge">
<title>1&#45;&gt;3</title>
<path fill="none" stroke="grey" stroke-width="2" d="M482.48,-503.7C472.13,-494.97 459.41,-484.24 448.16,-474.75"/>
<polygon fill="grey" stroke="grey" stroke-width="2" points="450.18,-471.88 440.28,-468.1 445.67,-477.23 450.18,-471.88"/>
</g>
<!-- 10 -->
<g id="node11" class="node">
<title>10</title>
<path fill="none" stroke="#ced856" stroke-width="2" d="M1045,-468C1045,-468 945,-468 945,-468 939,-468 933,-462 933,-456 933,-456 933,-444 933,-444 933,-438 939,-432 945,-432 945,-432 1045,-432 1045,-432 1051,-432 1057,-438 1057,-444 1057,-444 1057,-456 1057,-456 1057,-462 1051,-468 1045,-468"/>
<text text-anchor="middle" x="995" y="-447.5" font-family="sans" font-size="10.00">generate_STAR_report</text>
</g>
<!-- 1&#45;&gt;10 -->
<g id="edge51" class="edge">
<title>1&#45;&gt;10</title>
<path fill="none" stroke="grey" stroke-width="2" d="M594.68,-507.96C689.61,-494.45 835.99,-473.62 922.96,-461.25"/>
<polygon fill="grey" stroke="grey" stroke-width="2" points="923.59,-464.69 933,-459.82 922.61,-457.76 923.59,-464.69"/>
</g>
<!-- 11 -->
<g id="node12" class="node">
<title>11</title>
<path fill="none" stroke="#a7d856" stroke-width="2" d="M790.5,-180C790.5,-180 689.5,-180 689.5,-180 683.5,-180 677.5,-174 677.5,-168 677.5,-168 677.5,-156 677.5,-156 677.5,-150 683.5,-144 689.5,-144 689.5,-144 790.5,-144 790.5,-144 796.5,-144 802.5,-150 802.5,-156 802.5,-156 802.5,-168 802.5,-168 802.5,-174 796.5,-180 790.5,-180"/>
<text text-anchor="middle" x="740" y="-159.5" font-family="sans" font-size="10.00">salmon_quantification</text>
</g>
<!-- 1&#45;&gt;11 -->
<g id="edge54" class="edge">
<title>1&#45;&gt;11</title>
<path fill="none" stroke="grey" stroke-width="2" d="M542.01,-503.92C585.56,-481.9 650,-439.14 650,-379 650,-379 650,-379 650,-305 650,-257.71 686.04,-213.41 712.51,-187.25"/>
<polygon fill="grey" stroke="grey" stroke-width="2" points="715.23,-189.49 720.03,-180.05 710.38,-184.44 715.23,-189.49"/>
</g>
<!-- 42 -->
<g id="node43" class="node">
<title>42</title>
<path fill="none" stroke="#d89556" stroke-width="2" d="M381.5,-252C381.5,-252 290.5,-252 290.5,-252 284.5,-252 278.5,-246 278.5,-240 278.5,-240 278.5,-228 278.5,-228 278.5,-222 284.5,-216 290.5,-216 290.5,-216 381.5,-216 381.5,-216 387.5,-216 393.5,-222 393.5,-228 393.5,-228 393.5,-240 393.5,-240 393.5,-246 387.5,-252 381.5,-252"/>
<text text-anchor="middle" x="336" y="-231.5" font-family="sans" font-size="10.00">bam_downsampling</text>
</g>
<!-- 1&#45;&gt;42 -->
<g id="edge96" class="edge">
<title>1&#45;&gt;42</title>
<path fill="none" stroke="grey" stroke-width="2" d="M496.47,-503.88C489.29,-485.67 477.05,-456.2 464,-432 429.32,-367.69 380.5,-296.92 354.31,-260.22"/>
<polygon fill="grey" stroke="grey" stroke-width="2" points="357.14,-258.16 348.46,-252.07 351.45,-262.24 357.14,-258.16"/>
</g>
<!-- 2&#45;&gt;0 -->
<g id="edge2" class="edge">
<title>2&#45;&gt;0</title>
<path fill="none" stroke="grey" stroke-width="2" d="M289.99,-377.72C197.96,-376.51 0,-359.44 0,-235 0,-235 0,-235 0,-161 0,-115.19 12.74,-95.61 52,-72 107.33,-38.72 1104.05,-22.53 1310.69,-19.52"/>
<polygon fill="grey" stroke="grey" stroke-width="2" points="1310.79,-23.02 1320.74,-19.38 1310.69,-16.02 1310.79,-23.02"/>
</g>
<!-- 15 -->
<g id="node16" class="node">
<title>15</title>
<path fill="none" stroke="#b6d856" stroke-width="2" d="M244.5,-324C244.5,-324 155.5,-324 155.5,-324 149.5,-324 143.5,-318 143.5,-312 143.5,-312 143.5,-300 143.5,-300 143.5,-294 149.5,-288 155.5,-288 155.5,-288 244.5,-288 244.5,-288 250.5,-288 256.5,-294 256.5,-300 256.5,-300 256.5,-312 256.5,-312 256.5,-318 250.5,-324 244.5,-324"/>
<text text-anchor="middle" x="200" y="-303.5" font-family="sans" font-size="10.00">Size_downsampling</text>
</g>
<!-- 2&#45;&gt;15 -->
<g id="edge60" class="edge">
<title>2&#45;&gt;15</title>
<path fill="none" stroke="grey" stroke-width="2" d="M302.73,-359.88C284.54,-350.51 261.81,-338.81 242.36,-328.8"/>
<polygon fill="grey" stroke="grey" stroke-width="2" points="243.89,-325.65 233.4,-324.19 240.69,-331.88 243.89,-325.65"/>
</g>
<!-- 2&#45;&gt;42 -->
<g id="edge97" class="edge">
<title>2&#45;&gt;42</title>
<path fill="none" stroke="grey" stroke-width="2" d="M336,-359.87C336,-335.67 336,-291.21 336,-262.39"/>
<polygon fill="grey" stroke="grey" stroke-width="2" points="339.5,-262.19 336,-252.19 332.5,-262.19 339.5,-262.19"/>
</g>
<!-- 3&#45;&gt;0 -->
<g id="edge3" class="edge">
<title>3&#45;&gt;0</title>
<path fill="none" stroke="grey" stroke-width="2" d="M422.39,-431.93C432.21,-364.53 471.72,-118.31 531,-72 593.01,-23.56 1159.02,-19.26 1310.73,-18.99"/>
<polygon fill="grey" stroke="grey" stroke-width="2" points="1310.93,-22.49 1320.93,-18.97 1310.92,-15.49 1310.93,-22.49"/>
</g>
<!-- 3&#45;&gt;2 -->
<g id="edge43" class="edge">
<title>3&#45;&gt;2</title>
<path fill="none" stroke="grey" stroke-width="2" d="M399.24,-431.7C388.76,-422.97 375.89,-412.24 364.5,-402.75"/>
<polygon fill="grey" stroke="grey" stroke-width="2" points="366.45,-399.82 356.53,-396.1 361.97,-405.19 366.45,-399.82"/>
</g>
<!-- 4 -->
<g id="node5" class="node">
<title>4</title>
<path fill="none" stroke="#56d892" stroke-width="2" d="M1290.5,-540C1290.5,-540 1129.5,-540 1129.5,-540 1123.5,-540 1117.5,-534 1117.5,-528 1117.5,-528 1117.5,-516 1117.5,-516 1117.5,-510 1123.5,-504 1129.5,-504 1129.5,-504 1290.5,-504 1290.5,-504 1296.5,-504 1302.5,-510 1302.5,-516 1302.5,-516 1302.5,-528 1302.5,-528 1302.5,-534 1296.5,-540 1290.5,-540"/>
<text text-anchor="middle" x="1210" y="-525" font-family="sans" font-size="10.00">star_align</text>
<text text-anchor="middle" x="1210" y="-514" font-family="sans" font-size="10.00">sample: R18074855LR01&#45;150521N</text>
</g>
<!-- 4&#45;&gt;0 -->
<g id="edge4" class="edge">
<title>4&#45;&gt;0</title>
<path fill="none" stroke="grey" stroke-width="2" d="M1181.74,-503.99C1146.83,-480.59 1092,-434.93 1092,-379 1092,-379 1092,-379 1092,-233 1092,-161.33 1054.41,-126.46 1101,-72 1127.82,-40.65 1248.6,-26.76 1310.76,-21.59"/>
<polygon fill="grey" stroke="grey" stroke-width="2" points="1311.25,-25.06 1320.94,-20.78 1310.69,-18.09 1311.25,-25.06"/>
</g>
<!-- 5 -->
<g id="node6" class="node">
<title>5</title>
<path fill="none" stroke="#d86e56" stroke-width="2" d="M1526,-396C1526,-396 1458,-396 1458,-396 1452,-396 1446,-390 1446,-384 1446,-384 1446,-372 1446,-372 1446,-366 1452,-360 1458,-360 1458,-360 1526,-360 1526,-360 1532,-360 1538,-366 1538,-372 1538,-372 1538,-384 1538,-384 1538,-390 1532,-396 1526,-396"/>
<text text-anchor="middle" x="1492" y="-375.5" font-family="sans" font-size="10.00">align_bam_stat</text>
</g>
<!-- 4&#45;&gt;5 -->
<g id="edge45" class="edge">
<title>4&#45;&gt;5</title>
<path fill="none" stroke="grey" stroke-width="2" d="M1257.5,-503.95C1282.97,-494.31 1314.65,-481.5 1342,-468 1382.85,-447.83 1427.48,-420.63 1457.35,-401.63"/>
<polygon fill="grey" stroke="grey" stroke-width="2" points="1459.59,-404.35 1466.13,-396.01 1455.82,-398.46 1459.59,-404.35"/>
</g>
<!-- 6 -->
<g id="node7" class="node">
<title>6</title>
<path fill="none" stroke="#56b9d8" stroke-width="2" d="M1515.5,-468C1515.5,-468 1468.5,-468 1468.5,-468 1462.5,-468 1456.5,-462 1456.5,-456 1456.5,-456 1456.5,-444 1456.5,-444 1456.5,-438 1462.5,-432 1468.5,-432 1468.5,-432 1515.5,-432 1515.5,-432 1521.5,-432 1527.5,-438 1527.5,-444 1527.5,-444 1527.5,-456 1527.5,-456 1527.5,-462 1521.5,-468 1515.5,-468"/>
<text text-anchor="middle" x="1492" y="-447.5" font-family="sans" font-size="10.00">index_bam</text>
</g>
<!-- 4&#45;&gt;6 -->
<g id="edge47" class="edge">
<title>4&#45;&gt;6</title>
<path fill="none" stroke="grey" stroke-width="2" d="M1278.62,-503.97C1330.76,-491.02 1401.02,-473.58 1446.42,-462.32"/>
<polygon fill="grey" stroke="grey" stroke-width="2" points="1447.41,-465.68 1456.27,-459.87 1445.72,-458.88 1447.41,-465.68"/>
</g>
<!-- 4&#45;&gt;10 -->
<g id="edge52" class="edge">
<title>4&#45;&gt;10</title>
<path fill="none" stroke="grey" stroke-width="2" d="M1157.68,-503.97C1127.38,-494.1 1089.05,-481.62 1057.21,-471.25"/>
<polygon fill="grey" stroke="grey" stroke-width="2" points="1058.15,-467.88 1047.55,-468.11 1055.98,-474.53 1058.15,-467.88"/>
</g>
<!-- 12 -->
<g id="node13" class="node">
<title>12</title>
<path fill="none" stroke="#a7d856" stroke-width="2" d="M933.5,-180C933.5,-180 832.5,-180 832.5,-180 826.5,-180 820.5,-174 820.5,-168 820.5,-168 820.5,-156 820.5,-156 820.5,-150 826.5,-144 832.5,-144 832.5,-144 933.5,-144 933.5,-144 939.5,-144 945.5,-150 945.5,-156 945.5,-156 945.5,-168 945.5,-168 945.5,-174 939.5,-180 933.5,-180"/>
<text text-anchor="middle" x="883" y="-159.5" font-family="sans" font-size="10.00">salmon_quantification</text>
</g>
<!-- 4&#45;&gt;12 -->
<g id="edge55" class="edge">
<title>4&#45;&gt;12</title>
<path fill="none" stroke="grey" stroke-width="2" d="M1117.3,-514.18C1044.95,-507.01 952.13,-493.17 924,-468 893.19,-440.44 897,-420.34 897,-379 897,-379 897,-379 897,-305 897,-265.02 891.44,-219.02 887.32,-190.47"/>
<polygon fill="grey" stroke="grey" stroke-width="2" points="890.76,-189.81 885.83,-180.43 883.84,-190.84 890.76,-189.81"/>
</g>
<!-- 43 -->
<g id="node44" class="node">
<title>43</title>
<path fill="none" stroke="#d89556" stroke-width="2" d="M1635.5,-252C1635.5,-252 1544.5,-252 1544.5,-252 1538.5,-252 1532.5,-246 1532.5,-240 1532.5,-240 1532.5,-228 1532.5,-228 1532.5,-222 1538.5,-216 1544.5,-216 1544.5,-216 1635.5,-216 1635.5,-216 1641.5,-216 1647.5,-222 1647.5,-228 1647.5,-228 1647.5,-240 1647.5,-240 1647.5,-246 1641.5,-252 1635.5,-252"/>
<text text-anchor="middle" x="1590" y="-231.5" font-family="sans" font-size="10.00">bam_downsampling</text>
</g>
<!-- 4&#45;&gt;43 -->
<g id="edge99" class="edge">
<title>4&#45;&gt;43</title>
<path fill="none" stroke="grey" stroke-width="2" d="M1232.63,-503.97C1297.56,-455.1 1484.52,-314.39 1558.92,-258.39"/>
<polygon fill="grey" stroke="grey" stroke-width="2" points="1561.12,-261.12 1567.01,-252.31 1556.91,-255.52 1561.12,-261.12"/>
</g>
<!-- 5&#45;&gt;0 -->
<g id="edge5" class="edge">
<title>5&#45;&gt;0</title>
<path fill="none" stroke="grey" stroke-width="2" d="M1535.07,-359.96C1613.56,-328.29 1784.31,-256.62 1920,-180 1978.57,-146.93 2071.67,-121.38 2026,-72 1982.29,-24.74 1520.98,-19.54 1385.32,-19.03"/>
<polygon fill="grey" stroke="grey" stroke-width="2" points="1385.04,-15.53 1375.03,-19 1385.02,-22.53 1385.04,-15.53"/>
</g>
<!-- 23 -->
<g id="node24" class="node">
<title>23</title>
<path fill="none" stroke="#b6d856" stroke-width="2" d="M1365.5,-324C1365.5,-324 1276.5,-324 1276.5,-324 1270.5,-324 1264.5,-318 1264.5,-312 1264.5,-312 1264.5,-300 1264.5,-300 1264.5,-294 1270.5,-288 1276.5,-288 1276.5,-288 1365.5,-288 1365.5,-288 1371.5,-288 1377.5,-294 1377.5,-300 1377.5,-300 1377.5,-312 1377.5,-312 1377.5,-318 1371.5,-324 1365.5,-324"/>
<text text-anchor="middle" x="1321" y="-303.5" font-family="sans" font-size="10.00">Size_downsampling</text>
</g>
<!-- 5&#45;&gt;23 -->
<g id="edge69" class="edge">
<title>5&#45;&gt;23</title>
<path fill="none" stroke="grey" stroke-width="2" d="M1450.17,-359.88C1426.58,-350.22 1396.94,-338.09 1372,-327.88"/>
<polygon fill="grey" stroke="grey" stroke-width="2" points="1373.28,-324.62 1362.7,-324.07 1370.62,-331.1 1373.28,-324.62"/>
</g>
<!-- 5&#45;&gt;43 -->
<g id="edge100" class="edge">
<title>5&#45;&gt;43</title>
<path fill="none" stroke="grey" stroke-width="2" d="M1503.82,-359.87C1520.89,-335.14 1552.57,-289.24 1572.39,-260.51"/>
<polygon fill="grey" stroke="grey" stroke-width="2" points="1575.34,-262.41 1578.14,-252.19 1569.58,-258.43 1575.34,-262.41"/>
</g>
<!-- 6&#45;&gt;0 -->
<g id="edge6" class="edge">
<title>6&#45;&gt;0</title>
<path fill="none" stroke="grey" stroke-width="2" d="M1527.67,-446.97C1644.93,-439.32 2011,-407.42 2011,-307 2011,-307 2011,-307 2011,-233 2011,-159.77 2095.78,-125.7 2046,-72 2000.86,-23.3 1524.05,-19.12 1385.53,-18.94"/>
<polygon fill="grey" stroke="grey" stroke-width="2" points="1385.41,-15.44 1375.41,-18.94 1385.41,-22.44 1385.41,-15.44"/>
</g>
<!-- 6&#45;&gt;5 -->
<g id="edge46" class="edge">
<title>6&#45;&gt;5</title>
<path fill="none" stroke="grey" stroke-width="2" d="M1492,-431.7C1492,-423.98 1492,-414.71 1492,-406.11"/>
<polygon fill="grey" stroke="grey" stroke-width="2" points="1495.5,-406.1 1492,-396.1 1488.5,-406.1 1495.5,-406.1"/>
</g>
<!-- 7 -->
<g id="node8" class="node">
<title>7</title>
<path fill="none" stroke="#56d892" stroke-width="2" d="M2611.5,-540C2611.5,-540 2452.5,-540 2452.5,-540 2446.5,-540 2440.5,-534 2440.5,-528 2440.5,-528 2440.5,-516 2440.5,-516 2440.5,-510 2446.5,-504 2452.5,-504 2452.5,-504 2611.5,-504 2611.5,-504 2617.5,-504 2623.5,-510 2623.5,-516 2623.5,-516 2623.5,-528 2623.5,-528 2623.5,-534 2617.5,-540 2611.5,-540"/>
<text text-anchor="middle" x="2532" y="-525" font-family="sans" font-size="10.00">star_align</text>
<text text-anchor="middle" x="2532" y="-514" font-family="sans" font-size="10.00">sample: R19013727LR01&#45;181874T</text>
</g>
<!-- 7&#45;&gt;0 -->
<g id="edge7" class="edge">
<title>7&#45;&gt;0</title>
<path fill="none" stroke="grey" stroke-width="2" d="M2623.58,-505.97C2693.17,-488.7 2777,-452.62 2777,-379 2777,-379 2777,-379 2777,-161 2777,-118.81 2778.17,-96.75 2744,-72 2687.44,-31.03 1602.29,-20.88 1385.5,-19.26"/>
<polygon fill="grey" stroke="grey" stroke-width="2" points="1385.3,-15.75 1375.27,-19.18 1385.25,-22.75 1385.3,-15.75"/>
</g>
<!-- 8 -->
<g id="node9" class="node">
<title>8</title>
<path fill="none" stroke="#d86e56" stroke-width="2" d="M2534,-396C2534,-396 2466,-396 2466,-396 2460,-396 2454,-390 2454,-384 2454,-384 2454,-372 2454,-372 2454,-366 2460,-360 2466,-360 2466,-360 2534,-360 2534,-360 2540,-360 2546,-366 2546,-372 2546,-372 2546,-384 2546,-384 2546,-390 2540,-396 2534,-396"/>
<text text-anchor="middle" x="2500" y="-375.5" font-family="sans" font-size="10.00">align_bam_stat</text>
</g>
<!-- 7&#45;&gt;8 -->
<g id="edge48" class="edge">
<title>7&#45;&gt;8</title>
<path fill="none" stroke="grey" stroke-width="2" d="M2528.1,-503.82C2525.75,-493.44 2522.7,-479.96 2520,-468 2515.33,-447.27 2510.06,-423.83 2506.1,-406.21"/>
<polygon fill="grey" stroke="grey" stroke-width="2" points="2509.43,-405.05 2503.83,-396.06 2502.6,-406.59 2509.43,-405.05"/>
</g>
<!-- 9 -->
<g id="node10" class="node">
<title>9</title>
<path fill="none" stroke="#56b9d8" stroke-width="2" d="M2587.5,-468C2587.5,-468 2540.5,-468 2540.5,-468 2534.5,-468 2528.5,-462 2528.5,-456 2528.5,-456 2528.5,-444 2528.5,-444 2528.5,-438 2534.5,-432 2540.5,-432 2540.5,-432 2587.5,-432 2587.5,-432 2593.5,-432 2599.5,-438 2599.5,-444 2599.5,-444 2599.5,-456 2599.5,-456 2599.5,-462 2593.5,-468 2587.5,-468"/>
<text text-anchor="middle" x="2564" y="-447.5" font-family="sans" font-size="10.00">index_bam</text>
</g>
<!-- 7&#45;&gt;9 -->
<g id="edge50" class="edge">
<title>7&#45;&gt;9</title>
<path fill="none" stroke="grey" stroke-width="2" d="M2539.91,-503.7C2543.55,-495.73 2547.95,-486.1 2551.99,-477.26"/>
<polygon fill="grey" stroke="grey" stroke-width="2" points="2555.21,-478.65 2556.18,-468.1 2548.84,-475.74 2555.21,-478.65"/>
</g>
<!-- 7&#45;&gt;10 -->
<g id="edge53" class="edge">
<title>7&#45;&gt;10</title>
<path fill="none" stroke="grey" stroke-width="2" d="M2440.46,-516.83C2160.47,-504.08 1319.34,-465.77 1067.2,-454.29"/>
<polygon fill="grey" stroke="grey" stroke-width="2" points="1067.21,-450.79 1057.06,-453.83 1066.89,-457.78 1067.21,-450.79"/>
</g>
<!-- 13 -->
<g id="node14" class="node">
<title>13</title>
<path fill="none" stroke="#a7d856" stroke-width="2" d="M1233.5,-180C1233.5,-180 1132.5,-180 1132.5,-180 1126.5,-180 1120.5,-174 1120.5,-168 1120.5,-168 1120.5,-156 1120.5,-156 1120.5,-150 1126.5,-144 1132.5,-144 1132.5,-144 1233.5,-144 1233.5,-144 1239.5,-144 1245.5,-150 1245.5,-156 1245.5,-156 1245.5,-168 1245.5,-168 1245.5,-174 1239.5,-180 1233.5,-180"/>
<text text-anchor="middle" x="1183" y="-159.5" font-family="sans" font-size="10.00">salmon_quantification</text>
</g>
<!-- 7&#45;&gt;13 -->
<g id="edge56" class="edge">
<title>7&#45;&gt;13</title>
<path fill="none" stroke="grey" stroke-width="2" d="M2440.36,-519.59C2195.8,-515.4 1540,-501.18 1448,-468 1347.66,-431.81 1322.78,-407.18 1256,-324 1222.74,-282.58 1201.08,-223.56 1190.55,-189.69"/>
<polygon fill="grey" stroke="grey" stroke-width="2" points="1193.87,-188.59 1187.63,-180.03 1187.17,-190.61 1193.87,-188.59"/>
</g>
<!-- 44 -->
<g id="node45" class="node">
<title>44</title>
<path fill="none" stroke="#d89556" stroke-width="2" d="M2599.5,-252C2599.5,-252 2508.5,-252 2508.5,-252 2502.5,-252 2496.5,-246 2496.5,-240 2496.5,-240 2496.5,-228 2496.5,-228 2496.5,-222 2502.5,-216 2508.5,-216 2508.5,-216 2599.5,-216 2599.5,-216 2605.5,-216 2611.5,-222 2611.5,-228 2611.5,-228 2611.5,-240 2611.5,-240 2611.5,-246 2605.5,-252 2599.5,-252"/>
<text text-anchor="middle" x="2554" y="-231.5" font-family="sans" font-size="10.00">bam_downsampling</text>
</g>
<!-- 7&#45;&gt;44 -->
<g id="edge102" class="edge">
<title>7&#45;&gt;44</title>
<path fill="none" stroke="grey" stroke-width="2" d="M2571.27,-503.9C2585.87,-495.37 2600.84,-483.51 2609,-468 2645.46,-398.65 2598.4,-305.09 2571.05,-260.58"/>
<polygon fill="grey" stroke="grey" stroke-width="2" points="2574.01,-258.7 2565.72,-252.1 2568.08,-262.43 2574.01,-258.7"/>
</g>
<!-- 8&#45;&gt;0 -->
<g id="edge8" class="edge">
<title>8&#45;&gt;0</title>
<path fill="none" stroke="grey" stroke-width="2" d="M2453.69,-371.89C2361.33,-358.93 2155.69,-315.48 2069,-180 2060.38,-166.52 2063.81,-159.13 2069,-144 2075.58,-124.83 2090.42,-127.17 2097,-108 2102.19,-92.87 2107.91,-83.71 2097,-72 2048.13,-19.54 1530.12,-18.1 1385.38,-18.74"/>
<polygon fill="grey" stroke="grey" stroke-width="2" points="1385.21,-15.24 1375.23,-18.79 1385.25,-22.24 1385.21,-15.24"/>
</g>
<!-- 31 -->
<g id="node32" class="node">
<title>31</title>
<path fill="none" stroke="#b6d856" stroke-width="2" d="M2490.5,-324C2490.5,-324 2401.5,-324 2401.5,-324 2395.5,-324 2389.5,-318 2389.5,-312 2389.5,-312 2389.5,-300 2389.5,-300 2389.5,-294 2395.5,-288 2401.5,-288 2401.5,-288 2490.5,-288 2490.5,-288 2496.5,-288 2502.5,-294 2502.5,-300 2502.5,-300 2502.5,-312 2502.5,-312 2502.5,-318 2496.5,-324 2490.5,-324"/>
<text text-anchor="middle" x="2446" y="-303.5" font-family="sans" font-size="10.00">Size_downsampling</text>
</g>
<!-- 8&#45;&gt;31 -->
<g id="edge78" class="edge">
<title>8&#45;&gt;31</title>
<path fill="none" stroke="grey" stroke-width="2" d="M2486.65,-359.7C2480.24,-351.39 2472.44,-341.28 2465.39,-332.14"/>
<polygon fill="grey" stroke="grey" stroke-width="2" points="2468.07,-329.88 2459.19,-324.1 2462.53,-334.16 2468.07,-329.88"/>
</g>
<!-- 8&#45;&gt;44 -->
<g id="edge103" class="edge">
<title>8&#45;&gt;44</title>
<path fill="none" stroke="grey" stroke-width="2" d="M2506.51,-359.87C2515.8,-335.46 2532.92,-290.43 2543.87,-261.64"/>
<polygon fill="grey" stroke="grey" stroke-width="2" points="2547.18,-262.78 2547.46,-252.19 2540.64,-260.29 2547.18,-262.78"/>
</g>
<!-- 9&#45;&gt;0 -->
<g id="edge9" class="edge">
<title>9&#45;&gt;0</title>
<path fill="none" stroke="grey" stroke-width="2" d="M2582.35,-431.93C2642.62,-373.92 2824.73,-181.9 2719,-72 2671.47,-22.6 1600.48,-19.19 1385.41,-19"/>
<polygon fill="grey" stroke="grey" stroke-width="2" points="1385.26,-15.5 1375.26,-18.99 1385.26,-22.5 1385.26,-15.5"/>
</g>
<!-- 9&#45;&gt;8 -->
<g id="edge49" class="edge">
<title>9&#45;&gt;8</title>
<path fill="none" stroke="grey" stroke-width="2" d="M2548.18,-431.7C2540.43,-423.22 2530.96,-412.86 2522.48,-403.58"/>
<polygon fill="grey" stroke="grey" stroke-width="2" points="2524.97,-401.12 2515.64,-396.1 2519.8,-405.85 2524.97,-401.12"/>
</g>
<!-- 10&#45;&gt;0 -->
<g id="edge10" class="edge">
<title>10&#45;&gt;0</title>
<path fill="none" stroke="grey" stroke-width="2" d="M990.75,-431.63C984.61,-404.99 974,-352.36 974,-307 974,-307 974,-307 974,-161 974,-116.68 983.22,-98.16 1019,-72 1064.95,-38.42 1234.59,-25.15 1310.67,-20.81"/>
<polygon fill="grey" stroke="grey" stroke-width="2" points="1310.96,-24.3 1320.76,-20.25 1310.58,-17.31 1310.96,-24.3"/>
</g>
<!-- 11&#45;&gt;0 -->
<g id="edge11" class="edge">
<title>11&#45;&gt;0</title>
<path fill="none" stroke="grey" stroke-width="2" d="M752.72,-143.75C769.3,-122.76 800.39,-88.13 836,-72 920.91,-33.54 1207.44,-22.56 1310.6,-19.82"/>
<polygon fill="grey" stroke="grey" stroke-width="2" points="1310.94,-23.31 1320.85,-19.56 1310.76,-16.32 1310.94,-23.31"/>
</g>
<!-- 14 -->
<g id="node15" class="node">
<title>14</title>
<path fill="none" stroke="#8fd856" stroke-width="2" d="M934,-108C934,-108 868,-108 868,-108 862,-108 856,-102 856,-96 856,-96 856,-84 856,-84 856,-78 862,-72 868,-72 868,-72 934,-72 934,-72 940,-72 946,-78 946,-84 946,-84 946,-96 946,-96 946,-102 940,-108 934,-108"/>
<text text-anchor="middle" x="901" y="-87.5" font-family="sans" font-size="10.00">salmon_matrix</text>
</g>
<!-- 11&#45;&gt;14 -->
<g id="edge57" class="edge">
<title>11&#45;&gt;14</title>
<path fill="none" stroke="grey" stroke-width="2" d="M779.39,-143.88C801.39,-134.31 829.01,-122.3 852.36,-112.15"/>
<polygon fill="grey" stroke="grey" stroke-width="2" points="853.97,-115.27 861.74,-108.07 851.18,-108.85 853.97,-115.27"/>
</g>
<!-- 12&#45;&gt;0 -->
<g id="edge12" class="edge">
<title>12&#45;&gt;0</title>
<path fill="none" stroke="grey" stroke-width="2" d="M866.22,-143.71C849.37,-124.26 828.38,-92.69 847,-72 877.96,-37.59 1200.24,-23.85 1310.92,-20.12"/>
<polygon fill="grey" stroke="grey" stroke-width="2" points="1311.08,-23.62 1320.96,-19.79 1310.85,-16.62 1311.08,-23.62"/>
</g>
<!-- 12&#45;&gt;14 -->
<g id="edge58" class="edge">
<title>12&#45;&gt;14</title>
<path fill="none" stroke="grey" stroke-width="2" d="M887.45,-143.7C889.45,-135.9 891.87,-126.51 894.1,-117.83"/>
<polygon fill="grey" stroke="grey" stroke-width="2" points="897.5,-118.66 896.6,-108.1 890.72,-116.92 897.5,-118.66"/>
</g>
<!-- 13&#45;&gt;0 -->
<g id="edge13" class="edge">
<title>13&#45;&gt;0</title>
<path fill="none" stroke="grey" stroke-width="2" d="M1147.83,-143.94C1134.02,-135.25 1119.65,-123.26 1112,-108 1104.83,-93.7 1102,-84.49 1112,-72 1136.44,-41.46 1250.31,-27.3 1310.49,-21.85"/>
<polygon fill="grey" stroke="grey" stroke-width="2" points="1311.06,-25.32 1320.72,-20.97 1310.45,-18.34 1311.06,-25.32"/>
</g>
<!-- 13&#45;&gt;14 -->
<g id="edge59" class="edge">
<title>13&#45;&gt;14</title>
<path fill="none" stroke="grey" stroke-width="2" d="M1120.42,-145.46C1071.18,-133.24 1003.24,-116.38 956.06,-104.67"/>
<polygon fill="grey" stroke="grey" stroke-width="2" points="956.87,-101.26 946.32,-102.25 955.19,-108.06 956.87,-101.26"/>
</g>
<!-- 14&#45;&gt;0 -->
<g id="edge14" class="edge">
<title>14&#45;&gt;0</title>
<path fill="none" stroke="grey" stroke-width="2" d="M946.25,-75.24C950.87,-74.06 955.52,-72.95 960,-72 1087.49,-45.07 1241.56,-28.76 1310.95,-22.26"/>
<polygon fill="grey" stroke="grey" stroke-width="2" points="1311.32,-25.74 1320.96,-21.33 1310.68,-18.77 1311.32,-25.74"/>
</g>
<!-- 15&#45;&gt;0 -->
<g id="edge15" class="edge">
<title>15&#45;&gt;0</title>
<path fill="none" stroke="grey" stroke-width="2" d="M167.8,-287.99C133.04,-267.6 79.63,-229.84 57,-180 36.25,-134.3 48.34,-99.99 90,-72 141.95,-37.1 1107.82,-22.23 1310.78,-19.48"/>
<polygon fill="grey" stroke="grey" stroke-width="2" points="1310.98,-22.98 1320.93,-19.34 1310.88,-15.98 1310.98,-22.98"/>
</g>
<!-- 16 -->
<g id="node17" class="node">
<title>16</title>
<path fill="none" stroke="#d87d56" stroke-width="2" d="M219.5,-180C219.5,-180 78.5,-180 78.5,-180 72.5,-180 66.5,-174 66.5,-168 66.5,-168 66.5,-156 66.5,-156 66.5,-150 72.5,-144 78.5,-144 78.5,-144 219.5,-144 219.5,-144 225.5,-144 231.5,-150 231.5,-156 231.5,-156 231.5,-168 231.5,-168 231.5,-174 225.5,-180 219.5,-180"/>
<text text-anchor="middle" x="149" y="-159.5" font-family="sans" font-size="10.00">Downsampling_HouseKeeping</text>
</g>
<!-- 15&#45;&gt;16 -->
<g id="edge62" class="edge">
<title>15&#45;&gt;16</title>
<path fill="none" stroke="grey" stroke-width="2" d="M193.85,-287.87C185.08,-263.46 168.91,-218.43 158.57,-189.64"/>
<polygon fill="grey" stroke="grey" stroke-width="2" points="161.85,-188.42 155.17,-180.19 155.26,-190.78 161.85,-188.42"/>
</g>
<!-- 15&#45;&gt;42 -->
<g id="edge98" class="edge">
<title>15&#45;&gt;42</title>
<path fill="none" stroke="grey" stroke-width="2" d="M233.27,-287.88C251.46,-278.51 274.19,-266.81 293.64,-256.8"/>
<polygon fill="grey" stroke="grey" stroke-width="2" points="295.31,-259.88 302.6,-252.19 292.11,-253.65 295.31,-259.88"/>
</g>
<!-- 16&#45;&gt;0 -->
<g id="edge16" class="edge">
<title>16&#45;&gt;0</title>
<path fill="none" stroke="grey" stroke-width="2" d="M128.27,-143.88C107.32,-124.59 80.71,-93.17 101,-72 143.92,-27.21 1108.11,-20.14 1310.82,-19.15"/>
<polygon fill="grey" stroke="grey" stroke-width="2" points="1310.97,-22.65 1320.96,-19.1 1310.94,-15.65 1310.97,-22.65"/>
</g>
<!-- 17 -->
<g id="node18" class="node">
<title>17</title>
<path fill="none" stroke="#566bd8" stroke-width="2" d="M443.5,-180C443.5,-180 376.5,-180 376.5,-180 370.5,-180 364.5,-174 364.5,-168 364.5,-168 364.5,-156 364.5,-156 364.5,-150 370.5,-144 376.5,-144 376.5,-144 443.5,-144 443.5,-144 449.5,-144 455.5,-150 455.5,-156 455.5,-156 455.5,-168 455.5,-168 455.5,-174 449.5,-180 443.5,-180"/>
<text text-anchor="middle" x="410" y="-159.5" font-family="sans" font-size="10.00">read_distrib_qc</text>
</g>
<!-- 17&#45;&gt;0 -->
<g id="edge17" class="edge">
<title>17&#45;&gt;0</title>
<path fill="none" stroke="grey" stroke-width="2" d="M423.37,-143.88C442.13,-120.37 475.9,-80.07 493,-72 567.62,-36.77 1155.4,-22.79 1310.55,-19.69"/>
<polygon fill="grey" stroke="grey" stroke-width="2" points="1311.03,-23.19 1320.96,-19.49 1310.9,-16.19 1311.03,-23.19"/>
</g>
<!-- 41 -->
<g id="node42" class="node">
<title>41</title>
<path fill="none" stroke="#68d856" stroke-width="2" d="M1308,-108C1308,-108 1204,-108 1204,-108 1198,-108 1192,-102 1192,-96 1192,-96 1192,-84 1192,-84 1192,-78 1198,-72 1204,-72 1204,-72 1308,-72 1308,-72 1314,-72 1320,-78 1320,-84 1320,-84 1320,-96 1320,-96 1320,-102 1314,-108 1308,-108"/>
<text text-anchor="middle" x="1256" y="-87.5" font-family="sans" font-size="10.00">read_distrib_qc_matrix</text>
</g>
<!-- 17&#45;&gt;41 -->
<g id="edge93" class="edge">
<title>17&#45;&gt;41</title>
<path fill="none" stroke="grey" stroke-width="2" d="M455.7,-154.44C480.83,-150.99 512.59,-146.89 541,-144 774.3,-120.23 1051.45,-102.74 1181.56,-95.16"/>
<polygon fill="grey" stroke="grey" stroke-width="2" points="1182.02,-98.64 1191.8,-94.57 1181.62,-91.65 1182.02,-98.64"/>
</g>
<!-- 18 -->
<g id="node19" class="node">
<title>18</title>
<path fill="none" stroke="#59d856" stroke-width="2" d="M647.5,-180C647.5,-180 562.5,-180 562.5,-180 556.5,-180 550.5,-174 550.5,-168 550.5,-168 550.5,-156 550.5,-156 550.5,-150 556.5,-144 562.5,-144 562.5,-144 647.5,-144 647.5,-144 653.5,-144 659.5,-150 659.5,-156 659.5,-156 659.5,-168 659.5,-168 659.5,-174 653.5,-180 647.5,-180"/>
<text text-anchor="middle" x="605" y="-159.5" font-family="sans" font-size="10.00">gene_body_cvg_qc</text>
</g>
<!-- 18&#45;&gt;0 -->
<g id="edge18" class="edge">
<title>18&#45;&gt;0</title>
<path fill="none" stroke="grey" stroke-width="2" d="M631.46,-143.82C665.15,-122.9 725.86,-88.34 783,-72 882.81,-43.45 1201.15,-25.99 1310.61,-20.71"/>
<polygon fill="grey" stroke="grey" stroke-width="2" points="1311.01,-24.19 1320.84,-20.22 1310.68,-17.2 1311.01,-24.19"/>
</g>
<!-- 39 -->
<g id="node40" class="node">
<title>39</title>
<path fill="none" stroke="#56d87b" stroke-width="2" d="M1480,-108C1480,-108 1388,-108 1388,-108 1382,-108 1376,-102 1376,-96 1376,-96 1376,-84 1376,-84 1376,-78 1382,-72 1388,-72 1388,-72 1480,-72 1480,-72 1486,-72 1492,-78 1492,-84 1492,-84 1492,-96 1492,-96 1492,-102 1486,-108 1480,-108"/>
<text text-anchor="middle" x="1434" y="-87.5" font-family="sans" font-size="10.00">plot_gene_body_cvg</text>
</g>
<!-- 18&#45;&gt;39 -->
<g id="edge87" class="edge">
<title>18&#45;&gt;39</title>
<path fill="none" stroke="grey" stroke-width="2" d="M659.83,-145.48C662.58,-144.93 665.32,-144.43 668,-144 958.5,-97.42 1036.48,-139.56 1329,-108 1340.91,-106.72 1353.52,-104.99 1365.71,-103.13"/>
<polygon fill="grey" stroke="grey" stroke-width="2" points="1366.5,-106.55 1375.83,-101.55 1365.41,-99.64 1366.5,-106.55"/>
</g>
<!-- 19 -->
<g id="node20" class="node">
<title>19</title>
<path fill="none" stroke="#d85656" stroke-width="2" d="M208,-108C208,-108 122,-108 122,-108 116,-108 110,-102 110,-96 110,-96 110,-84 110,-84 110,-78 116,-72 122,-72 122,-72 208,-72 208,-72 214,-72 220,-78 220,-84 220,-84 220,-96 220,-96 220,-102 214,-108 208,-108"/>
<text text-anchor="middle" x="165" y="-87.5" font-family="sans" font-size="10.00">junction_saturation</text>
</g>
<!-- 19&#45;&gt;0 -->
<g id="edge19" class="edge">
<title>19&#45;&gt;0</title>
<path fill="none" stroke="grey" stroke-width="2" d="M220,-73.6C223.03,-73 226.05,-72.46 229,-72 444.45,-38.67 1140.74,-23.07 1310.45,-19.71"/>
<polygon fill="grey" stroke="grey" stroke-width="2" points="1310.7,-23.2 1320.63,-19.51 1310.56,-16.2 1310.7,-23.2"/>
</g>
<!-- 20 -->
<g id="node21" class="node">
<title>20</title>
<path fill="none" stroke="#56d0d8" stroke-width="2" d="M333.5,-108C333.5,-108 250.5,-108 250.5,-108 244.5,-108 238.5,-102 238.5,-96 238.5,-96 238.5,-84 238.5,-84 238.5,-78 244.5,-72 250.5,-72 250.5,-72 333.5,-72 333.5,-72 339.5,-72 345.5,-78 345.5,-84 345.5,-84 345.5,-96 345.5,-96 345.5,-102 339.5,-108 333.5,-108"/>
<text text-anchor="middle" x="292" y="-87.5" font-family="sans" font-size="10.00">collect_insert_size</text>
</g>
<!-- 20&#45;&gt;0 -->
<g id="edge20" class="edge">
<title>20&#45;&gt;0</title>
<path fill="none" stroke="grey" stroke-width="2" d="M345.61,-73.54C348.44,-72.97 351.25,-72.45 354,-72 543.69,-41.3 1153.94,-23.94 1310.91,-19.91"/>
<polygon fill="grey" stroke="grey" stroke-width="2" points="1311.09,-23.41 1321,-19.66 1310.91,-16.41 1311.09,-23.41"/>
</g>
<!-- 21 -->
<g id="node22" class="node">
<title>21</title>
<path fill="none" stroke="#56d86b" stroke-width="2" d="M1051.5,-180C1051.5,-180 1014.5,-180 1014.5,-180 1008.5,-180 1002.5,-174 1002.5,-168 1002.5,-168 1002.5,-156 1002.5,-156 1002.5,-150 1008.5,-144 1014.5,-144 1014.5,-144 1051.5,-144 1051.5,-144 1057.5,-144 1063.5,-150 1063.5,-156 1063.5,-156 1063.5,-168 1063.5,-168 1063.5,-174 1057.5,-180 1051.5,-180"/>
<text text-anchor="middle" x="1033" y="-159.5" font-family="sans" font-size="10.00">tin_score</text>
</g>
<!-- 21&#45;&gt;0 -->
<g id="edge21" class="edge">
<title>21&#45;&gt;0</title>
<path fill="none" stroke="grey" stroke-width="2" d="M1027.85,-143.97C1023.01,-124.16 1018.81,-91.68 1036,-72 1071.45,-31.43 1235.67,-21.92 1310.58,-19.68"/>
<polygon fill="grey" stroke="grey" stroke-width="2" points="1311.05,-23.17 1320.95,-19.4 1310.86,-16.17 1311.05,-23.17"/>
</g>
<!-- 40 -->
<g id="node41" class="node">
<title>40</title>
<path fill="none" stroke="#56d8a9" stroke-width="2" d="M1870.5,-108C1870.5,-108 1813.5,-108 1813.5,-108 1807.5,-108 1801.5,-102 1801.5,-96 1801.5,-96 1801.5,-84 1801.5,-84 1801.5,-78 1807.5,-72 1813.5,-72 1813.5,-72 1870.5,-72 1870.5,-72 1876.5,-72 1882.5,-78 1882.5,-84 1882.5,-84 1882.5,-96 1882.5,-96 1882.5,-102 1876.5,-108 1870.5,-108"/>
<text text-anchor="middle" x="1842" y="-87.5" font-family="sans" font-size="10.00">tin_summary</text>
</g>
<!-- 21&#45;&gt;40 -->
<g id="edge90" class="edge">
<title>21&#45;&gt;40</title>
<path fill="none" stroke="grey" stroke-width="2" d="M1063.56,-153.24C1078.14,-149.84 1095.87,-146.15 1112,-144 1409.06,-104.44 1493.67,-164.86 1791.11,-108.05"/>
<polygon fill="grey" stroke="grey" stroke-width="2" points="1792.18,-111.41 1801.33,-106.07 1790.85,-104.54 1792.18,-111.41"/>
</g>
<!-- 22 -->
<g id="node23" class="node">
<title>22</title>
<path fill="none" stroke="#567bd8" stroke-width="2" d="M428.5,-108C428.5,-108 375.5,-108 375.5,-108 369.5,-108 363.5,-102 363.5,-96 363.5,-96 363.5,-84 363.5,-84 363.5,-78 369.5,-72 375.5,-72 375.5,-72 428.5,-72 428.5,-72 434.5,-72 440.5,-78 440.5,-84 440.5,-84 440.5,-96 440.5,-96 440.5,-102 434.5,-108 428.5,-108"/>
<text text-anchor="middle" x="402" y="-87.5" font-family="sans" font-size="10.00">read_quality</text>
</g>
<!-- 22&#45;&gt;0 -->
<g id="edge22" class="edge">
<title>22&#45;&gt;0</title>
<path fill="none" stroke="grey" stroke-width="2" d="M440.79,-75.34C445.53,-74.03 450.35,-72.87 455,-72 623.11,-40.57 1162.9,-23.99 1310.43,-19.97"/>
<polygon fill="grey" stroke="grey" stroke-width="2" points="1310.86,-23.46 1320.76,-19.7 1310.67,-16.47 1310.86,-23.46"/>
</g>
<!-- 23&#45;&gt;0 -->
<g id="edge23" class="edge">
<title>23&#45;&gt;0</title>
<path fill="none" stroke="grey" stroke-width="2" d="M1318.32,-287.59C1312.47,-255.23 1295.69,-185.34 1255,-144 1226.51,-115.05 1193.36,-141.91 1171,-108 1162.19,-94.64 1161.45,-84.83 1171,-72 1187.74,-49.51 1264.13,-33.03 1310.91,-24.83"/>
<polygon fill="grey" stroke="grey" stroke-width="2" points="1311.71,-28.24 1320.98,-23.11 1310.53,-21.34 1311.71,-28.24"/>
</g>
<!-- 24 -->
<g id="node25" class="node">
<title>24</title>
<path fill="none" stroke="#d87d56" stroke-width="2" d="M1455.5,-180C1455.5,-180 1314.5,-180 1314.5,-180 1308.5,-180 1302.5,-174 1302.5,-168 1302.5,-168 1302.5,-156 1302.5,-156 1302.5,-150 1308.5,-144 1314.5,-144 1314.5,-144 1455.5,-144 1455.5,-144 1461.5,-144 1467.5,-150 1467.5,-156 1467.5,-156 1467.5,-168 1467.5,-168 1467.5,-174 1461.5,-180 1455.5,-180"/>
<text text-anchor="middle" x="1385" y="-159.5" font-family="sans" font-size="10.00">Downsampling_HouseKeeping</text>
</g>
<!-- 23&#45;&gt;24 -->
<g id="edge71" class="edge">
<title>23&#45;&gt;24</title>
<path fill="none" stroke="grey" stroke-width="2" d="M1328.72,-287.87C1339.72,-263.46 1360.02,-218.43 1373,-189.64"/>
<polygon fill="grey" stroke="grey" stroke-width="2" points="1376.33,-190.74 1377.25,-180.19 1369.95,-187.87 1376.33,-190.74"/>
</g>
<!-- 23&#45;&gt;43 -->
<g id="edge101" class="edge">
<title>23&#45;&gt;43</title>
<path fill="none" stroke="grey" stroke-width="2" d="M1377.72,-290.24C1419.99,-279.24 1477.89,-264.17 1522.54,-252.55"/>
<polygon fill="grey" stroke="grey" stroke-width="2" points="1523.64,-255.89 1532.43,-249.98 1521.87,-249.11 1523.64,-255.89"/>
</g>
<!-- 24&#45;&gt;0 -->
<g id="edge24" class="edge">
<title>24&#45;&gt;0</title>
<path fill="none" stroke="grey" stroke-width="2" d="M1302.37,-144.28C1250.01,-132.85 1190.72,-118.01 1183,-108 1145.77,-59.74 1251.29,-34.46 1310.64,-24.37"/>
<polygon fill="grey" stroke="grey" stroke-width="2" points="1311.49,-27.78 1320.79,-22.71 1310.36,-20.87 1311.49,-27.78"/>
</g>
<!-- 25 -->
<g id="node26" class="node">
<title>25</title>
<path fill="none" stroke="#566bd8" stroke-width="2" d="M1564.5,-180C1564.5,-180 1497.5,-180 1497.5,-180 1491.5,-180 1485.5,-174 1485.5,-168 1485.5,-168 1485.5,-156 1485.5,-156 1485.5,-150 1491.5,-144 1497.5,-144 1497.5,-144 1564.5,-144 1564.5,-144 1570.5,-144 1576.5,-150 1576.5,-156 1576.5,-156 1576.5,-168 1576.5,-168 1576.5,-174 1570.5,-180 1564.5,-180"/>
<text text-anchor="middle" x="1531" y="-159.5" font-family="sans" font-size="10.00">read_distrib_qc</text>
</g>
<!-- 25&#45;&gt;0 -->
<g id="edge25" class="edge">
<title>25&#45;&gt;0</title>
<path fill="none" stroke="grey" stroke-width="2" d="M1485.26,-146.52C1437.1,-131.23 1368.04,-109.16 1367,-108 1351.99,-91.38 1347.78,-65.87 1347.01,-46.42"/>
<polygon fill="grey" stroke="grey" stroke-width="2" points="1350.51,-46.29 1346.89,-36.33 1343.51,-46.38 1350.51,-46.29"/>
</g>
<!-- 25&#45;&gt;41 -->
<g id="edge94" class="edge">
<title>25&#45;&gt;41</title>
<path fill="none" stroke="grey" stroke-width="2" d="M1485.4,-146.4C1482.56,-145.57 1479.75,-144.76 1477,-144 1428.32,-130.52 1373.05,-117.26 1329.97,-107.38"/>
<polygon fill="grey" stroke="grey" stroke-width="2" points="1330.66,-103.95 1320.13,-105.14 1329.1,-110.78 1330.66,-103.95"/>
</g>
<!-- 26 -->
<g id="node27" class="node">
<title>26</title>
<path fill="none" stroke="#59d856" stroke-width="2" d="M1691.5,-180C1691.5,-180 1606.5,-180 1606.5,-180 1600.5,-180 1594.5,-174 1594.5,-168 1594.5,-168 1594.5,-156 1594.5,-156 1594.5,-150 1600.5,-144 1606.5,-144 1606.5,-144 1691.5,-144 1691.5,-144 1697.5,-144 1703.5,-150 1703.5,-156 1703.5,-156 1703.5,-168 1703.5,-168 1703.5,-174 1697.5,-180 1691.5,-180"/>
<text text-anchor="middle" x="1649" y="-159.5" font-family="sans" font-size="10.00">gene_body_cvg_qc</text>
</g>
<!-- 26&#45;&gt;0 -->
<g id="edge26" class="edge">
<title>26&#45;&gt;0</title>
<path fill="none" stroke="grey" stroke-width="2" d="M1605.79,-143.9C1584.78,-134.67 1559.68,-122.26 1539,-108 1519.85,-94.79 1520.88,-84.08 1501,-72 1464.47,-49.81 1417.36,-35.28 1385.13,-27.14"/>
<polygon fill="grey" stroke="grey" stroke-width="2" points="1385.76,-23.69 1375.22,-24.72 1384.1,-30.5 1385.76,-23.69"/>
</g>
<!-- 26&#45;&gt;39 -->
<g id="edge88" class="edge">
<title>26&#45;&gt;39</title>
<path fill="none" stroke="grey" stroke-width="2" d="M1596.68,-143.97C1566.38,-134.1 1528.05,-121.62 1496.21,-111.25"/>
<polygon fill="grey" stroke="grey" stroke-width="2" points="1497.15,-107.88 1486.55,-108.11 1494.98,-114.53 1497.15,-107.88"/>
</g>
<!-- 27 -->
<g id="node28" class="node">
<title>27</title>
<path fill="none" stroke="#d85656" stroke-width="2" d="M1646,-108C1646,-108 1560,-108 1560,-108 1554,-108 1548,-102 1548,-96 1548,-96 1548,-84 1548,-84 1548,-78 1554,-72 1560,-72 1560,-72 1646,-72 1646,-72 1652,-72 1658,-78 1658,-84 1658,-84 1658,-96 1658,-96 1658,-102 1652,-108 1646,-108"/>
<text text-anchor="middle" x="1603" y="-87.5" font-family="sans" font-size="10.00">junction_saturation</text>
</g>
<!-- 27&#45;&gt;0 -->
<g id="edge27" class="edge">
<title>27&#45;&gt;0</title>
<path fill="none" stroke="grey" stroke-width="2" d="M1547.98,-73.9C1498.64,-60.35 1427.62,-40.86 1384.83,-29.11"/>
<polygon fill="grey" stroke="grey" stroke-width="2" points="1385.68,-25.71 1375.11,-26.44 1383.83,-32.46 1385.68,-25.71"/>
</g>
<!-- 28 -->
<g id="node29" class="node">
<title>28</title>
<path fill="none" stroke="#56d0d8" stroke-width="2" d="M1771.5,-108C1771.5,-108 1688.5,-108 1688.5,-108 1682.5,-108 1676.5,-102 1676.5,-96 1676.5,-96 1676.5,-84 1676.5,-84 1676.5,-78 1682.5,-72 1688.5,-72 1688.5,-72 1771.5,-72 1771.5,-72 1777.5,-72 1783.5,-78 1783.5,-84 1783.5,-84 1783.5,-96 1783.5,-96 1783.5,-102 1777.5,-108 1771.5,-108"/>
<text text-anchor="middle" x="1730" y="-87.5" font-family="sans" font-size="10.00">collect_insert_size</text>
</g>
<!-- 28&#45;&gt;0 -->
<g id="edge28" class="edge">
<title>28&#45;&gt;0</title>
<path fill="none" stroke="grey" stroke-width="2" d="M1676.47,-74.17C1673.27,-73.4 1670.1,-72.67 1667,-72 1565.82,-50 1444.87,-32.19 1385.14,-23.95"/>
<polygon fill="grey" stroke="grey" stroke-width="2" points="1385.44,-20.46 1375.06,-22.57 1384.49,-27.4 1385.44,-20.46"/>
</g>
<!-- 29 -->
<g id="node30" class="node">
<title>29</title>
<path fill="none" stroke="#56d86b" stroke-width="2" d="M1860.5,-180C1860.5,-180 1823.5,-180 1823.5,-180 1817.5,-180 1811.5,-174 1811.5,-168 1811.5,-168 1811.5,-156 1811.5,-156 1811.5,-150 1817.5,-144 1823.5,-144 1823.5,-144 1860.5,-144 1860.5,-144 1866.5,-144 1872.5,-150 1872.5,-156 1872.5,-156 1872.5,-168 1872.5,-168 1872.5,-174 1866.5,-180 1860.5,-180"/>
<text text-anchor="middle" x="1842" y="-159.5" font-family="sans" font-size="10.00">tin_score</text>
</g>
<!-- 29&#45;&gt;0 -->
<g id="edge29" class="edge">
<title>29&#45;&gt;0</title>
<path fill="none" stroke="grey" stroke-width="2" d="M1863.52,-143.81C1884.88,-124.74 1911.77,-93.79 1892,-72 1857.99,-34.52 1502.87,-22.7 1385.45,-19.8"/>
<polygon fill="grey" stroke="grey" stroke-width="2" points="1385.25,-16.3 1375.17,-19.56 1385.08,-23.29 1385.25,-16.3"/>
</g>
<!-- 29&#45;&gt;40 -->
<g id="edge91" class="edge">
<title>29&#45;&gt;40</title>
<path fill="none" stroke="grey" stroke-width="2" d="M1842,-143.7C1842,-135.98 1842,-126.71 1842,-118.11"/>
<polygon fill="grey" stroke="grey" stroke-width="2" points="1845.5,-118.1 1842,-108.1 1838.5,-118.1 1845.5,-118.1"/>
</g>
<!-- 30 -->
<g id="node31" class="node">
<title>30</title>
<path fill="none" stroke="#567bd8" stroke-width="2" d="M2004.5,-108C2004.5,-108 1951.5,-108 1951.5,-108 1945.5,-108 1939.5,-102 1939.5,-96 1939.5,-96 1939.5,-84 1939.5,-84 1939.5,-78 1945.5,-72 1951.5,-72 1951.5,-72 2004.5,-72 2004.5,-72 2010.5,-72 2016.5,-78 2016.5,-84 2016.5,-84 2016.5,-96 2016.5,-96 2016.5,-102 2010.5,-108 2004.5,-108"/>
<text text-anchor="middle" x="1978" y="-87.5" font-family="sans" font-size="10.00">read_quality</text>
</g>
<!-- 30&#45;&gt;0 -->
<g id="edge30" class="edge">
<title>30&#45;&gt;0</title>
<path fill="none" stroke="grey" stroke-width="2" d="M1939.47,-75.57C1934.64,-74.2 1929.73,-72.96 1925,-72 1724.23,-31.09 1477.67,-21.73 1385.29,-19.61"/>
<polygon fill="grey" stroke="grey" stroke-width="2" points="1385.12,-16.11 1375.05,-19.39 1384.97,-23.1 1385.12,-16.11"/>
</g>
<!-- 31&#45;&gt;0 -->
<g id="edge31" class="edge">
<title>31&#45;&gt;0</title>
<path fill="none" stroke="grey" stroke-width="2" d="M2398.78,-287.98C2348.91,-268.16 2270.28,-231.43 2217,-180 2176.86,-141.25 2200.54,-101.2 2153,-72 2087.08,-31.51 1535.3,-21.43 1385.44,-19.43"/>
<polygon fill="grey" stroke="grey" stroke-width="2" points="1385.4,-15.93 1375.35,-19.3 1385.31,-22.93 1385.4,-15.93"/>
</g>
<!-- 32 -->
<g id="node33" class="node">
<title>32</title>
<path fill="none" stroke="#d87d56" stroke-width="2" d="M2505.5,-180C2505.5,-180 2364.5,-180 2364.5,-180 2358.5,-180 2352.5,-174 2352.5,-168 2352.5,-168 2352.5,-156 2352.5,-156 2352.5,-150 2358.5,-144 2364.5,-144 2364.5,-144 2505.5,-144 2505.5,-144 2511.5,-144 2517.5,-150 2517.5,-156 2517.5,-156 2517.5,-168 2517.5,-168 2517.5,-174 2511.5,-180 2505.5,-180"/>
<text text-anchor="middle" x="2435" y="-159.5" font-family="sans" font-size="10.00">Downsampling_HouseKeeping</text>
</g>
<!-- 31&#45;&gt;32 -->
<g id="edge80" class="edge">
<title>31&#45;&gt;32</title>
<path fill="none" stroke="grey" stroke-width="2" d="M2444.67,-287.87C2442.8,-263.67 2439.35,-219.21 2437.12,-190.39"/>
<polygon fill="grey" stroke="grey" stroke-width="2" points="2440.59,-189.89 2436.33,-180.19 2433.61,-190.43 2440.59,-189.89"/>
</g>
<!-- 31&#45;&gt;44 -->
<g id="edge104" class="edge">
<title>31&#45;&gt;44</title>
<path fill="none" stroke="grey" stroke-width="2" d="M2472.42,-287.88C2486.41,-278.81 2503.78,-267.55 2518.89,-257.76"/>
<polygon fill="grey" stroke="grey" stroke-width="2" points="2520.99,-260.57 2527.48,-252.19 2517.18,-254.69 2520.99,-260.57"/>
</g>
<!-- 32&#45;&gt;0 -->
<g id="edge32" class="edge">
<title>32&#45;&gt;0</title>
<path fill="none" stroke="grey" stroke-width="2" d="M2402.17,-143.87C2356.48,-120.34 2275.74,-80.02 2244,-72 2077.64,-29.95 1534.37,-21.03 1385.83,-19.35"/>
<polygon fill="grey" stroke="grey" stroke-width="2" points="1385.47,-15.85 1375.43,-19.24 1385.39,-22.85 1385.47,-15.85"/>
</g>
<!-- 33 -->
<g id="node34" class="node">
<title>33</title>
<path fill="none" stroke="#566bd8" stroke-width="2" d="M2156.5,-180C2156.5,-180 2089.5,-180 2089.5,-180 2083.5,-180 2077.5,-174 2077.5,-168 2077.5,-168 2077.5,-156 2077.5,-156 2077.5,-150 2083.5,-144 2089.5,-144 2089.5,-144 2156.5,-144 2156.5,-144 2162.5,-144 2168.5,-150 2168.5,-156 2168.5,-156 2168.5,-168 2168.5,-168 2168.5,-174 2162.5,-180 2156.5,-180"/>
<text text-anchor="middle" x="2123" y="-159.5" font-family="sans" font-size="10.00">read_distrib_qc</text>
</g>
<!-- 33&#45;&gt;0 -->
<g id="edge33" class="edge">
<title>33&#45;&gt;0</title>
<path fill="none" stroke="grey" stroke-width="2" d="M2132.45,-143.82C2142,-123.87 2152.99,-91.25 2135,-72 2083.34,-16.75 1534.62,-17.39 1385.32,-18.6"/>
<polygon fill="grey" stroke="grey" stroke-width="2" points="1385.24,-15.1 1375.27,-18.69 1385.3,-22.1 1385.24,-15.1"/>
</g>
<!-- 33&#45;&gt;41 -->
<g id="edge95" class="edge">
<title>33&#45;&gt;41</title>
<path fill="none" stroke="grey" stroke-width="2" d="M2077.25,-157.76C2028.77,-154.34 1949.99,-148.77 1882,-144 1653.12,-127.93 1595.04,-133.39 1367,-108 1355.12,-106.68 1342.56,-105.01 1330.33,-103.25"/>
<polygon fill="grey" stroke="grey" stroke-width="2" points="1330.56,-99.74 1320.15,-101.74 1329.53,-106.67 1330.56,-99.74"/>
</g>
<!-- 34 -->
<g id="node35" class="node">
<title>34</title>
<path fill="none" stroke="#59d856" stroke-width="2" d="M2322.5,-180C2322.5,-180 2237.5,-180 2237.5,-180 2231.5,-180 2225.5,-174 2225.5,-168 2225.5,-168 2225.5,-156 2225.5,-156 2225.5,-150 2231.5,-144 2237.5,-144 2237.5,-144 2322.5,-144 2322.5,-144 2328.5,-144 2334.5,-150 2334.5,-156 2334.5,-156 2334.5,-168 2334.5,-168 2334.5,-174 2328.5,-180 2322.5,-180"/>
<text text-anchor="middle" x="2280" y="-159.5" font-family="sans" font-size="10.00">gene_body_cvg_qc</text>
</g>
<!-- 34&#45;&gt;0 -->
<g id="edge34" class="edge">
<title>34&#45;&gt;0</title>
<path fill="none" stroke="grey" stroke-width="2" d="M2272.37,-143.99C2261.9,-122.9 2240.9,-87.81 2211,-72 2137.3,-33.04 1541.67,-21.79 1385.42,-19.49"/>
<polygon fill="grey" stroke="grey" stroke-width="2" points="1385.41,-15.99 1375.36,-19.35 1385.3,-22.99 1385.41,-15.99"/>
</g>
<!-- 34&#45;&gt;39 -->
<g id="edge89" class="edge">
<title>34&#45;&gt;39</title>
<path fill="none" stroke="grey" stroke-width="2" d="M2225.36,-150.77C2210.08,-148.21 2193.43,-145.72 2178,-144 1895.29,-112.57 1821.78,-138.77 1539,-108 1527.1,-106.7 1514.49,-104.97 1502.29,-103.11"/>
<polygon fill="grey" stroke="grey" stroke-width="2" points="1502.59,-99.62 1492.17,-101.53 1501.51,-106.53 1502.59,-99.62"/>
</g>
<!-- 35 -->
<g id="node36" class="node">
<title>35</title>
<path fill="none" stroke="#d85656" stroke-width="2" d="M2475,-108C2475,-108 2389,-108 2389,-108 2383,-108 2377,-102 2377,-96 2377,-96 2377,-84 2377,-84 2377,-78 2383,-72 2389,-72 2389,-72 2475,-72 2475,-72 2481,-72 2487,-78 2487,-84 2487,-84 2487,-96 2487,-96 2487,-102 2481,-108 2475,-108"/>
<text text-anchor="middle" x="2432" y="-87.5" font-family="sans" font-size="10.00">junction_saturation</text>
</g>
<!-- 35&#45;&gt;0 -->
<g id="edge35" class="edge">
<title>35&#45;&gt;0</title>
<path fill="none" stroke="grey" stroke-width="2" d="M2376.77,-74.9C2371.13,-73.78 2365.47,-72.78 2360,-72 1982.28,-17.96 1518.23,-17.45 1385.22,-18.55"/>
<polygon fill="grey" stroke="grey" stroke-width="2" points="1385.12,-15.05 1375.15,-18.64 1385.18,-22.05 1385.12,-15.05"/>
</g>
<!-- 36 -->
<g id="node37" class="node">
<title>36</title>
<path fill="none" stroke="#56d0d8" stroke-width="2" d="M2601.5,-108C2601.5,-108 2518.5,-108 2518.5,-108 2512.5,-108 2506.5,-102 2506.5,-96 2506.5,-96 2506.5,-84 2506.5,-84 2506.5,-78 2512.5,-72 2518.5,-72 2518.5,-72 2601.5,-72 2601.5,-72 2607.5,-72 2613.5,-78 2613.5,-84 2613.5,-84 2613.5,-96 2613.5,-96 2613.5,-102 2607.5,-108 2601.5,-108"/>
<text text-anchor="middle" x="2560" y="-87.5" font-family="sans" font-size="10.00">collect_insert_size</text>
</g>
<!-- 36&#45;&gt;0 -->
<g id="edge36" class="edge">
<title>36&#45;&gt;0</title>
<path fill="none" stroke="grey" stroke-width="2" d="M2506.4,-73.87C2502.9,-73.16 2499.41,-72.53 2496,-72 2274.36,-37.85 1556.79,-22.81 1385.14,-19.65"/>
<polygon fill="grey" stroke="grey" stroke-width="2" points="1385.15,-16.15 1375.08,-19.47 1385.02,-23.15 1385.15,-16.15"/>
</g>
<!-- 37 -->
<g id="node38" class="node">
<title>37</title>
<path fill="none" stroke="#56d86b" stroke-width="2" d="M2584.5,-180C2584.5,-180 2547.5,-180 2547.5,-180 2541.5,-180 2535.5,-174 2535.5,-168 2535.5,-168 2535.5,-156 2535.5,-156 2535.5,-150 2541.5,-144 2547.5,-144 2547.5,-144 2584.5,-144 2584.5,-144 2590.5,-144 2596.5,-150 2596.5,-156 2596.5,-156 2596.5,-168 2596.5,-168 2596.5,-174 2590.5,-180 2584.5,-180"/>
<text text-anchor="middle" x="2566" y="-159.5" font-family="sans" font-size="10.00">tin_score</text>
</g>
<!-- 37&#45;&gt;0 -->
<g id="edge37" class="edge">
<title>37&#45;&gt;0</title>
<path fill="none" stroke="grey" stroke-width="2" d="M2535.12,-146.92C2532.4,-145.86 2529.67,-144.87 2527,-144 2458.15,-121.42 2436.09,-132.77 2368,-108 2335.12,-96.04 2331.76,-81.18 2298,-72 2121.51,-24.03 1539.56,-19.39 1385.63,-19.01"/>
<polygon fill="grey" stroke="grey" stroke-width="2" points="1385.3,-15.51 1375.29,-18.99 1385.29,-22.51 1385.3,-15.51"/>
</g>
<!-- 37&#45;&gt;40 -->
<g id="edge92" class="edge">
<title>37&#45;&gt;40</title>
<path fill="none" stroke="grey" stroke-width="2" d="M2535.26,-146.44C2532.51,-145.49 2529.73,-144.66 2527,-144 2268.97,-82.03 2194.32,-140.96 1931,-108 1918.44,-106.43 1904.98,-104.16 1892.42,-101.8"/>
<polygon fill="grey" stroke="grey" stroke-width="2" points="1893.07,-98.36 1882.59,-99.89 1891.74,-105.23 1893.07,-98.36"/>
</g>
<!-- 38 -->
<g id="node39" class="node">
<title>38</title>
<path fill="none" stroke="#567bd8" stroke-width="2" d="M2697.5,-108C2697.5,-108 2644.5,-108 2644.5,-108 2638.5,-108 2632.5,-102 2632.5,-96 2632.5,-96 2632.5,-84 2632.5,-84 2632.5,-78 2638.5,-72 2644.5,-72 2644.5,-72 2697.5,-72 2697.5,-72 2703.5,-72 2709.5,-78 2709.5,-84 2709.5,-84 2709.5,-96 2709.5,-96 2709.5,-102 2703.5,-108 2697.5,-108"/>
<text text-anchor="middle" x="2671" y="-87.5" font-family="sans" font-size="10.00">read_quality</text>
</g>
<!-- 38&#45;&gt;0 -->
<g id="edge38" class="edge">
<title>38&#45;&gt;0</title>
<path fill="none" stroke="grey" stroke-width="2" d="M2632.24,-74.18C2629.14,-73.33 2626.04,-72.59 2623,-72 2376.81,-24.41 1569.1,-19.54 1385.4,-19.05"/>
<polygon fill="grey" stroke="grey" stroke-width="2" points="1385.19,-15.55 1375.18,-19.03 1385.17,-22.55 1385.19,-15.55"/>
</g>
<!-- 39&#45;&gt;0 -->
<g id="edge39" class="edge">
<title>39&#45;&gt;0</title>
<path fill="none" stroke="grey" stroke-width="2" d="M1412.74,-71.7C1401.91,-62.88 1388.58,-52.03 1376.84,-42.47"/>
<polygon fill="grey" stroke="grey" stroke-width="2" points="1378.98,-39.7 1369.01,-36.1 1374.56,-45.13 1378.98,-39.7"/>
</g>
<!-- 40&#45;&gt;0 -->
<g id="edge40" class="edge">
<title>40&#45;&gt;0</title>
<path fill="none" stroke="grey" stroke-width="2" d="M1801.29,-74.14C1798.5,-73.35 1795.72,-72.63 1793,-72 1644.37,-37.79 1462.43,-24.89 1385.35,-20.73"/>
<polygon fill="grey" stroke="grey" stroke-width="2" points="1385.35,-17.23 1375.18,-20.2 1384.99,-24.22 1385.35,-17.23"/>
</g>
<!-- 41&#45;&gt;0 -->
<g id="edge41" class="edge">
<title>41&#45;&gt;0</title>
<path fill="none" stroke="grey" stroke-width="2" d="M1278.74,-71.7C1290.44,-62.8 1304.86,-51.82 1317.51,-42.2"/>
<polygon fill="grey" stroke="grey" stroke-width="2" points="1319.68,-44.94 1325.52,-36.1 1315.44,-39.37 1319.68,-44.94"/>
</g>
<!-- 42&#45;&gt;16 -->
<g id="edge61" class="edge">
<title>42&#45;&gt;16</title>
<path fill="none" stroke="grey" stroke-width="2" d="M290.25,-215.88C264.24,-206.14 231.47,-193.87 204.05,-183.61"/>
<polygon fill="grey" stroke="grey" stroke-width="2" points="205.19,-180.3 194.6,-180.07 202.74,-186.85 205.19,-180.3"/>
</g>
<!-- 42&#45;&gt;17 -->
<g id="edge63" class="edge">
<title>42&#45;&gt;17</title>
<path fill="none" stroke="grey" stroke-width="2" d="M354.29,-215.7C363.43,-207.05 374.64,-196.45 384.6,-187.03"/>
<polygon fill="grey" stroke="grey" stroke-width="2" points="387.06,-189.52 391.92,-180.1 382.25,-184.43 387.06,-189.52"/>
</g>
<!-- 42&#45;&gt;18 -->
<g id="edge64" class="edge">
<title>42&#45;&gt;18</title>
<path fill="none" stroke="grey" stroke-width="2" d="M393.71,-217.98C436.76,-206.78 495.61,-191.47 540.27,-179.84"/>
<polygon fill="grey" stroke="grey" stroke-width="2" points="541.35,-183.18 550.14,-177.27 539.58,-176.41 541.35,-183.18"/>
</g>
<!-- 42&#45;&gt;19 -->
<g id="edge65" class="edge">
<title>42&#45;&gt;19</title>
<path fill="none" stroke="grey" stroke-width="2" d="M318.93,-215.87C300.21,-197.4 268.95,-167.48 240,-144 227.1,-133.54 212.28,-122.81 199.23,-113.77"/>
<polygon fill="grey" stroke="grey" stroke-width="2" points="201.18,-110.87 190.96,-108.09 197.22,-116.64 201.18,-110.87"/>
</g>
<!-- 42&#45;&gt;20 -->
<g id="edge66" class="edge">
<title>42&#45;&gt;20</title>
<path fill="none" stroke="grey" stroke-width="2" d="M330.69,-215.87C323.16,-191.56 309.3,-146.82 300.37,-118.01"/>
<polygon fill="grey" stroke="grey" stroke-width="2" points="303.63,-116.71 297.33,-108.19 296.94,-118.78 303.63,-116.71"/>
</g>
<!-- 42&#45;&gt;21 -->
<g id="edge67" class="edge">
<title>42&#45;&gt;21</title>
<path fill="none" stroke="grey" stroke-width="2" d="M393.8,-230.49C503.5,-225.17 749.26,-210.68 954,-180 966.57,-178.12 980.15,-175.44 992.43,-172.76"/>
<polygon fill="grey" stroke="grey" stroke-width="2" points="993.41,-176.13 1002.4,-170.53 991.88,-169.3 993.41,-176.13"/>
</g>
<!-- 42&#45;&gt;22 -->
<g id="edge68" class="edge">
<title>42&#45;&gt;22</title>
<path fill="none" stroke="grey" stroke-width="2" d="M337.07,-215.74C338.8,-197.15 343.31,-167.13 355,-144 360.18,-133.75 367.84,-123.92 375.47,-115.57"/>
<polygon fill="grey" stroke="grey" stroke-width="2" points="378.01,-117.99 382.41,-108.35 372.96,-113.14 378.01,-117.99"/>
</g>
<!-- 43&#45;&gt;24 -->
<g id="edge70" class="edge">
<title>43&#45;&gt;24</title>
<path fill="none" stroke="grey" stroke-width="2" d="M1540.11,-215.97C1511.35,-206.14 1474.99,-193.73 1444.71,-183.39"/>
<polygon fill="grey" stroke="grey" stroke-width="2" points="1445.7,-180.03 1435.11,-180.11 1443.44,-186.65 1445.7,-180.03"/>
</g>
<!-- 43&#45;&gt;25 -->
<g id="edge72" class="edge">
<title>43&#45;&gt;25</title>
<path fill="none" stroke="grey" stroke-width="2" d="M1575.42,-215.7C1568.34,-207.3 1559.72,-197.07 1551.95,-187.86"/>
<polygon fill="grey" stroke="grey" stroke-width="2" points="1554.54,-185.49 1545.42,-180.1 1549.19,-190.01 1554.54,-185.49"/>
</g>
<!-- 43&#45;&gt;26 -->
<g id="edge73" class="edge">
<title>43&#45;&gt;26</title>
<path fill="none" stroke="grey" stroke-width="2" d="M1604.58,-215.7C1611.66,-207.3 1620.28,-197.07 1628.05,-187.86"/>
<polygon fill="grey" stroke="grey" stroke-width="2" points="1630.81,-190.01 1634.58,-180.1 1625.46,-185.49 1630.81,-190.01"/>
</g>
<!-- 43&#45;&gt;27 -->
<g id="edge74" class="edge">
<title>43&#45;&gt;27</title>
<path fill="none" stroke="grey" stroke-width="2" d="M1647.78,-222.71C1672.22,-215.19 1698.37,-202.24 1713,-180 1721.79,-166.63 1721.51,-157.55 1713,-144 1702.58,-127.41 1685.35,-115.9 1667.59,-107.95"/>
<polygon fill="grey" stroke="grey" stroke-width="2" points="1668.87,-104.69 1658.29,-104.11 1666.2,-111.16 1668.87,-104.69"/>
</g>
<!-- 43&#45;&gt;28 -->
<g id="edge75" class="edge">
<title>43&#45;&gt;28</title>
<path fill="none" stroke="grey" stroke-width="2" d="M1647.6,-226.65C1677.46,-220.1 1711.46,-206.84 1730,-180 1742.37,-162.09 1741.13,-136.93 1737.5,-117.93"/>
<polygon fill="grey" stroke="grey" stroke-width="2" points="1740.9,-117.1 1735.32,-108.09 1734.07,-118.61 1740.9,-117.1"/>
</g>
<!-- 43&#45;&gt;29 -->
<g id="edge76" class="edge">
<title>43&#45;&gt;29</title>
<path fill="none" stroke="grey" stroke-width="2" d="M1647.8,-217.51C1686.42,-207.08 1738.31,-192.94 1784,-180 1789.69,-178.39 1795.69,-176.66 1801.58,-174.95"/>
<polygon fill="grey" stroke="grey" stroke-width="2" points="1802.71,-178.27 1811.33,-172.1 1800.75,-171.55 1802.71,-178.27"/>
</g>
<!-- 43&#45;&gt;30 -->
<g id="edge77" class="edge">
<title>43&#45;&gt;30</title>
<path fill="none" stroke="grey" stroke-width="2" d="M1647.59,-231.98C1708.74,-228.8 1806.77,-217.61 1882,-180 1912.69,-164.66 1940.57,-136.46 1958.28,-115.91"/>
<polygon fill="grey" stroke="grey" stroke-width="2" points="1961.02,-118.08 1964.77,-108.17 1955.66,-113.58 1961.02,-118.08"/>
</g>
<!-- 44&#45;&gt;32 -->
<g id="edge79" class="edge">
<title>44&#45;&gt;32</title>
<path fill="none" stroke="grey" stroke-width="2" d="M2524.89,-215.88C2509.33,-206.72 2489.98,-195.34 2473.22,-185.48"/>
<polygon fill="grey" stroke="grey" stroke-width="2" points="2474.62,-182.24 2464.22,-180.19 2471.07,-188.28 2474.62,-182.24"/>
</g>
<!-- 44&#45;&gt;33 -->
<g id="edge81" class="edge">
<title>44&#45;&gt;33</title>
<path fill="none" stroke="grey" stroke-width="2" d="M2496.39,-224.35C2429.24,-214.17 2314.96,-196.56 2217,-180 2204.61,-177.91 2191.33,-175.56 2178.76,-173.3"/>
<polygon fill="grey" stroke="grey" stroke-width="2" points="2179.32,-169.85 2168.86,-171.51 2178.08,-176.74 2179.32,-169.85"/>
</g>
<!-- 44&#45;&gt;34 -->
<g id="edge82" class="edge">
<title>44&#45;&gt;34</title>
<path fill="none" stroke="grey" stroke-width="2" d="M2496.46,-218.68C2456.54,-208.7 2401.88,-194.94 2344.74,-180.18"/>
<polygon fill="grey" stroke="grey" stroke-width="2" points="2345.36,-176.72 2334.8,-177.6 2343.61,-183.5 2345.36,-176.72"/>
</g>
<!-- 44&#45;&gt;35 -->
<g id="edge83" class="edge">
<title>44&#45;&gt;35</title>
<path fill="none" stroke="grey" stroke-width="2" d="M2576.09,-215.92C2597.22,-197.48 2623.47,-167.58 2606,-144 2602.53,-139.31 2545.05,-122.37 2497.1,-108.88"/>
<polygon fill="grey" stroke="grey" stroke-width="2" points="2497.92,-105.48 2487.34,-106.15 2496.03,-112.22 2497.92,-105.48"/>
</g>
<!-- 44&#45;&gt;36 -->
<g id="edge84" class="edge">
<title>44&#45;&gt;36</title>
<path fill="none" stroke="grey" stroke-width="2" d="M2599.03,-215.86C2614.55,-207.53 2630.22,-195.81 2639,-180 2646.76,-166.01 2646.53,-158.12 2639,-144 2632.31,-131.45 2621.18,-121.35 2609.36,-113.47"/>
<polygon fill="grey" stroke="grey" stroke-width="2" points="2611.03,-110.39 2600.68,-108.12 2607.36,-116.34 2611.03,-110.39"/>
</g>
<!-- 44&#45;&gt;37 -->
<g id="edge85" class="edge">
<title>44&#45;&gt;37</title>
<path fill="none" stroke="grey" stroke-width="2" d="M2556.97,-215.7C2558.29,-207.98 2559.88,-198.71 2561.35,-190.11"/>
<polygon fill="grey" stroke="grey" stroke-width="2" points="2564.83,-190.55 2563.07,-180.1 2557.93,-189.37 2564.83,-190.55"/>
</g>
<!-- 44&#45;&gt;38 -->
<g id="edge86" class="edge">
<title>44&#45;&gt;38</title>
<path fill="none" stroke="grey" stroke-width="2" d="M2607.23,-215.98C2624.96,-207.78 2643.17,-196.13 2655,-180 2668.02,-162.24 2671.58,-137.23 2672.13,-118.24"/>
<polygon fill="grey" stroke="grey" stroke-width="2" points="2675.63,-118.14 2672.16,-108.13 2668.63,-118.11 2675.63,-118.14"/>
</g>
</g>
</svg>
